<?xml version="1.0" encoding="utf-8"?>
<!-- Generator: Adobe Illustrator 15.1.0, SVG Export Plug-In . SVG Version: 6.00 Build 0)  -->
<!DOCTYPE svg PUBLIC "-//W3C//DTD SVG 1.1//EN" "http://www.w3.org/Graphics/SVG/1.1/DTD/svg11.dtd">
<svg version="1.1" id="Layer_1" xmlns="http://www.w3.org/2000/svg" xmlns:xlink="http://www.w3.org/1999/xlink" x="0px" y="0px"
	 width="235px" height="235px" viewBox="0 0 235 235" enable-background="new 0 0 235 235" xml:space="preserve">
<rect fill="#F9DECF" width="235" height="235"/>
<g>
	<defs>
		<rect id="SVGID_1_" width="235" height="235"/>
	</defs>
	<clipPath id="SVGID_2_">
		<use xlink:href="#SVGID_1_"  overflow="visible"/>
	</clipPath>
	<path clip-path="url(#SVGID_2_)" fill="#E35E15" d="M117.5,0C52.606,0,0,52.606,0,117.5c0,1.132,0.02,2.258,0.052,3.382H0V235
		h114.119v-0.052c1.123,0.032,2.25,0.052,3.381,0.052c64.894,0,117.5-52.606,117.5-117.5C235,52.606,182.394,0,117.5,0"/>
	
		<path clip-path="url(#SVGID_2_)" fill="none" stroke="#FFFFFF" stroke-width="2" stroke-linecap="round" stroke-linejoin="round" stroke-miterlimit="22.926" d="
		M105.94,124.554c0-11.034,8.493-16.696,16.704-16.696"/>
	
		<path clip-path="url(#SVGID_2_)" fill="none" stroke="#FFFFFF" stroke-width="2" stroke-linecap="round" stroke-linejoin="round" stroke-miterlimit="22.926" d="
		M145.99,74.069l-0.175,10.795c0,0,1.666,1.028,1.841,2.999s-2.542,3.084-2.542,3.084l-0.439,8.311c0,0-0.263,1.199-3.944,2.827
		c-2.859,1.265-5.612,2.322-7.769,2.45c0,0-1.356,0.045-1.775,0.002c-2.151-0.22-4.929-1.181-7.804-2.452
		c-3.681-1.628-3.943-2.827-3.943-2.827L119,90.947c0,0-2.717-1.113-2.542-3.084s1.841-2.999,1.841-2.999l-0.175-10.795
		c0,0-0.404-3.4,0.767-4.49c1.171-1.09,7.024-2.888,7.024-2.888s-0.668,1.581-0.167,1.635c0.502,0.054,6.857-2.288,10.201-2.779
		c3.345-0.49,0.056,2.016,1.059,2.016c1.004,0,8.14-1.689,8.475-1.689C145.816,65.875,145.99,74.069,145.99,74.069z"/>
	
		<path clip-path="url(#SVGID_2_)" fill="none" stroke="#FFFFFF" stroke-width="2" stroke-linecap="round" stroke-linejoin="round" stroke-miterlimit="22.926" d="
		M158.502,124.554c0-11.034-8.493-16.696-16.704-16.696"/>
	
		<path clip-path="url(#SVGID_2_)" fill="none" stroke="#FFFFFF" stroke-width="2" stroke-linecap="round" stroke-linejoin="round" stroke-miterlimit="22.926" d="
		M70,77.104c0,11.618,9.407,21.027,21.023,21.027c0.158,0,0.311-0.02,0.468-0.024l0.034,0.024h20.515V75.897
		c0,0-0.023-0.006-0.061-0.016c-0.637-11.033-9.759-19.79-20.956-19.79C79.407,56.091,70,65.499,70,77.104z"/>
</g>
</svg>
