<?xml version="1.0" encoding="utf-8"?>
<!-- Generator: Adobe Illustrator 15.1.0, SVG Export Plug-In . SVG Version: 6.00 Build 0)  -->
<!DOCTYPE svg PUBLIC "-//W3C//DTD SVG 1.1//EN" "http://www.w3.org/Graphics/SVG/1.1/DTD/svg11.dtd">
<svg version="1.1" id="Layer_1" xmlns="http://www.w3.org/2000/svg" xmlns:xlink="http://www.w3.org/1999/xlink" x="0px" y="0px"
	 width="90px" height="90px" viewBox="0 0 90 90" enable-background="new 0 0 90 90" xml:space="preserve">
<g>
	<path fill="#F0EEEB" d="M4.144,46.209l-0.047,0.065v40.287h43.654c0,0,0.013-0.045,0.032-0.121
		c21.663-1.25,38.857-19.163,38.857-41.151c0-22.811-18.472-41.283-41.259-41.283c-22.811,0-41.285,18.473-41.285,41.283
		C4.097,45.6,4.136,45.9,4.144,46.209"/>
	<path fill="#A5ACB3" d="M64.879,66.991c3.05-9.016,3.057-22.302,1.936-33.726c-1.517-15.467-12.729-19.236-21.349-19.045
		c-8.62-0.191-19.832,3.578-21.351,19.045c-1.104,11.268-1.112,24.343,1.814,33.346c0,0,1.067,3.31,1.726,4.434
		c0.658,1.125,35.097,0.919,35.097,0.919S64.257,69.039,64.879,66.991"/>
	<path fill="#D8D2CA" d="M27.135,71.492c0.684-0.687,1.63-1.181,2.842-1.468c4.513-1.071,7.323-2.891,8.599-3.881
		c0.054-0.043,0.103-0.092,0.146-0.149c0.532-0.724,0.939-1.772,1.176-3.034c0.135-0.722,0.271-1.363,0.391-1.941
		c0.539-2.56,0.81-3.844-0.391-5.127c-0.363-0.387-0.875-0.844-1.469-1.375c-1.955-1.746-4.589-4.1-5.146-6.477
		c-0.465-1.995-0.64-3.039-0.703-3.565c-0.025-0.219-0.139-0.416-0.307-0.543c-0.446-0.332-1.193-1.055-1.193-2.172
		c0-0.939,0.525-1.324,0.967-1.479c0.3-0.106,0.503-0.408,0.503-0.746v-1.7c0-1.031,0.185-1.57,0.367-1.57
		c0.015,0,1.493-0.009,3.675-0.787c0.485-0.17,0.828-0.472,1.021-0.894c0.19-0.405,0.238-0.946,0.146-1.569
		c0.11-0.037,0.216-0.088,0.313-0.151c0.613,0.681,1.708,1.569,3.665,2.614c1.308,0.701,3.362,1.055,6.107,1.055
		c4.686,0,9.842-1.01,10.059-1.053l0.002,4.056c0,0.338,0.203,0.64,0.501,0.746c0.443,0.155,0.969,0.54,0.969,1.479
		c0,1.116-0.747,1.84-1.193,2.172c-0.169,0.127-0.28,0.324-0.308,0.543c-0.064,0.529-0.239,1.576-0.705,3.566
		c-0.555,2.377-3.189,4.729-5.113,6.449c-0.634,0.563-1.14,1.019-1.5,1.401c-1.199,1.283-0.93,2.568-0.391,5.129
		c0.128,0.613,0.26,1.238,0.391,1.939c0.271,1.438,0.764,2.553,1.516,3.406c0.039,0.045,0.084,0.084,0.132,0.117
		c0.75,0.527,2.004,1.313,3.713,2.062c0.079,0.035,0.14,0.06,0.192,0.089c1.339,0.57,2.797,1.043,4.271,1.391
		c1.479,0.352,2.563,1.011,3.252,1.951L27.135,71.492z"/>
</g>
</svg>
