<?xml version="1.0" encoding="utf-8"?>
<!-- Generator: Adobe Illustrator 15.1.0, SVG Export Plug-In . SVG Version: 6.00 Build 0)  -->
<!DOCTYPE svg PUBLIC "-//W3C//DTD SVG 1.1//EN" "http://www.w3.org/Graphics/SVG/1.1/DTD/svg11.dtd">
<svg version="1.1" id="Layer_1" xmlns="http://www.w3.org/2000/svg" xmlns:xlink="http://www.w3.org/1999/xlink" x="0px" y="0px"
	 width="145px" height="145px" viewBox="0 0 145 145" enable-background="new 0 0 145 145" xml:space="preserve">
<circle fill="none" stroke="#4B5966" cx="72" cy="72" r="70.5"/>
<path fill="none" stroke="#4B5966" d="M47.707,50.49c3.975-15.717,20.694-8.029,23.465-6.635l0.076,0.018
	c2.883-1.353,21.067-9.162,25.051,6.617c4.272,16.93-24.452,30.115-24.452,30.115S43.426,67.42,47.707,50.49z"/>
</svg>
